[
  {
    "pk": "EUR",
    "model": "currencies.currency",
    "fields": {
      "name": "Euro"
    }
  },
  {
    "pk": "USD",
    "model": "currencies.currency",
    "fields": {
      "name": "US Dollar"
    }
  },
  {
    "pk": "GBP",
    "model": "currencies.currency",
    "fields": {
      "name": "British Pound"
    }
  }
]